{
  "bottom": {
    "to": [
      {
        "opacity": 0,
        "transform": "translate3d(0,50%,0)"
      },
      {
        "opacity": 1,
        "transform": "translate3d(0,0,0)"
      }
    ],
    "from": {
      "opacity": 0,
      "transform": "translate3d(0,50%,0)"
    }
  },
  "fade": {
    "opacity": 1
  },
  "top": {
    "to": [
      {
        "opacity": 0,
        "transform": "translate3d(0,-100%,0)"
      },
      {
        "opacity": 1,
        "transform": "translate3d(0,0,0)"
      }
    ],
    "from": {
      "opacity": 0,
      "transform": "translate3d(0,-100%,0)"
    }
  },
  "dialog": {
    "fade": {
      "opacity": 1
    },
    "bottom": {
      "to": [
        {
          "opacity": 0,
          "transform": "translate3d(-50%,50%,0)"
        },
        {
          "opacity": 1,
          "transform": "translate3d(-50%,-50%,0)"
        }
      ],
      "from": {
        "opacity": 0,
        "transform": "translate3d(-50%,50%,0)"
      }
    },
    "top": {
      "to": [
        {
          "opacity": 0,
          "transform": "translate3d(-50%,-100%,0)"
        },
        {
          "opacity": 1,
          "transform": "translate3d(-50%,-50%,0)"
        }
      ],
      "from": {
        "opacity": 0,
        "transform": "translate3d(-50%,-100%,0)"
      }
    }
  }
}
