{
  "bottom": {
    "enter": {
      "opacity": 1,
      "transform": "translate3d(0,0,0)"
    },
    "leave": {
      "opacity": 0,
      "transform": "translate3d(0,50%,0)"
    },
    "from": {
      "opacity": 0,
      "transform": "translate3d(0,50%,0)"
    }
  },
  "toLeft": {
    "from": {
      "opacity": 0,
      "transform": "translate3d(-100%,0,0)"
    },
    "enter": {
      "opacity": 1,
      "transform": "translate3d(0,0,0)"
    },
    "leave": {
      "opacity": 0,
      "transform": "translate3d(100%,0,0)"
    }
  },
  "fade": {
    "enter": {
      "opacity": 1
    },
    "leave": {
      "opacity": 0
    },
    "from": {
      "opacity": 0
    }
  },
  "dialog": {
    "fade": {
      "opacity": 1
    },
    "bottom": {
      "enter": {
        "opacity": 1,
        "transform": "translate3d(-50%,-50%,0)"
      },
      "leave": {
        "opacity": 0,
        "transform": "translate3d(-50%,50%,0)"
      },
      "from": {
        "opacity": 0,
        "transform": "translate3d(-50%,50%,0)"
      }
    }
  }
}
